Library\Bee\artifacts\mvdfrm\Unity.Burst.ref.dll_3835BB91EC2C0D62.mvfrm
Library\Bee\artifacts\mvdfrm\UnityEditor.TestRunner.ref.dll_A805A84D9B0C22D9.mvfrm
Library\Bee\artifacts\mvdfrm\UnityEditor.UI.ref.dll_0174E068A5FA251B.mvfrm
Library\Bee\artifacts\mvdfrm\UnityEngine.TestRunner.ref.dll_7423F2FBC6CF80C4.mvfrm
Library\Bee\artifacts\mvdfrm\UnityEngine.UI.ref.dll_BDDAB6C3AC1C4D86.mvfrm
Library\Bee\artifacts\mvdfrm\UnityEditor.Graphs.dll_C56A8DCAA0313216.mvfrm
Library\Bee\artifacts\mvdfrm\UnityEditor.CoreModule.dll_DFA41C43070F8BE4.mvfrm
Library\Bee\artifacts\mvdfrm\UnityEditor.DeviceSimulatorModule.dll_8BC4C0DB48B9431D.mvfrm
Library\Bee\artifacts\mvdfrm\UnityEditor.DiagnosticsModule.dll_B8D09B1D8B6BE62B.mvfrm
Library\Bee\artifacts\mvdfrm\UnityEditor.dll_C9786C3B68F5D871.mvfrm
Library\Bee\artifacts\mvdfrm\UnityEditor.GraphViewModule.dll_CC4A862066F572A2.mvfrm
Library\Bee\artifacts\mvdfrm\UnityEditor.PackageManagerUIModule.dll_0BB7A0F78A8D0440.mvfrm
Library\Bee\artifacts\mvdfrm\UnityEditor.QuickSearchModule.dll_43E01C2AE442E284.mvfrm
Library\Bee\artifacts\mvdfrm\UnityEditor.SceneTemplateModule.dll_BC9EF7A2B1675985.mvfrm
Library\Bee\artifacts\mvdfrm\UnityEditor.TextCoreFontEngineModule.dll_4EC97FEA4821ACE2.mvfrm
Library\Bee\artifacts\mvdfrm\UnityEditor.TextCoreTextEngineModule.dll_96B1B65BD7A56600.mvfrm
Library\Bee\artifacts\mvdfrm\UnityEditor.UIBuilderModule.dll_20D3333CD9ADEBD6.mvfrm
Library\Bee\artifacts\mvdfrm\UnityEditor.UIElementsModule.dll_61E91C170502F8A0.mvfrm
Library\Bee\artifacts\mvdfrm\UnityEditor.UIElementsSamplesModule.dll_A7FA1CD4A17E92CD.mvfrm
Library\Bee\artifacts\mvdfrm\UnityEditor.UIServiceModule.dll_59C5449FC2E53BF0.mvfrm
Library\Bee\artifacts\mvdfrm\UnityEditor.UnityConnectModule.dll_D029058342D62C9A.mvfrm
Library\Bee\artifacts\mvdfrm\UnityEngine.AccessibilityModule.dll_EF446339B1DD8122.mvfrm
Library\Bee\artifacts\mvdfrm\UnityEngine.AIModule.dll_2EFE219133D8C5B8.mvfrm
Library\Bee\artifacts\mvdfrm\UnityEngine.AndroidJNIModule.dll_E03204EA4E226776.mvfrm
Library\Bee\artifacts\mvdfrm\UnityEngine.AnimationModule.dll_9AD0024941524748.mvfrm
Library\Bee\artifacts\mvdfrm\UnityEngine.ARModule.dll_E870E69490F62481.mvfrm
Library\Bee\artifacts\mvdfrm\UnityEngine.AssetBundleModule.dll_87C94F1C46A99776.mvfrm
Library\Bee\artifacts\mvdfrm\UnityEngine.AudioModule.dll_EA968855FE1C963A.mvfrm
Library\Bee\artifacts\mvdfrm\UnityEngine.ClothModule.dll_517EE550D839751E.mvfrm
Library\Bee\artifacts\mvdfrm\UnityEngine.ClusterInputModule.dll_4FC57A98F45DFF60.mvfrm
Library\Bee\artifacts\mvdfrm\UnityEngine.ClusterRendererModule.dll_9171834CB87450A1.mvfrm
Library\Bee\artifacts\mvdfrm\UnityEngine.CoreModule.dll_02C4EF95AF14F70F.mvfrm
Library\Bee\artifacts\mvdfrm\UnityEngine.CrashReportingModule.dll_5E9378B41B6B0A07.mvfrm
Library\Bee\artifacts\mvdfrm\UnityEngine.DirectorModule.dll_EF958F0332EF10EC.mvfrm
Library\Bee\artifacts\mvdfrm\UnityEngine.dll_FC1CB313C7696556.mvfrm
Library\Bee\artifacts\mvdfrm\UnityEngine.DSPGraphModule.dll_F4E6F06CA54FE20D.mvfrm
Library\Bee\artifacts\mvdfrm\UnityEngine.GameCenterModule.dll_0A7F4F0514635867.mvfrm
Library\Bee\artifacts\mvdfrm\UnityEngine.GIModule.dll_C73A6A9ECF87ADD2.mvfrm
Library\Bee\artifacts\mvdfrm\UnityEngine.GridModule.dll_E0360B83C7698D06.mvfrm
Library\Bee\artifacts\mvdfrm\UnityEngine.HotReloadModule.dll_1C18C04F1C8562CA.mvfrm
Library\Bee\artifacts\mvdfrm\UnityEngine.ImageConversionModule.dll_FD6380FD3A990895.mvfrm
Library\Bee\artifacts\mvdfrm\UnityEngine.IMGUIModule.dll_22F627BCC44E2A1B.mvfrm
Library\Bee\artifacts\mvdfrm\UnityEngine.InputLegacyModule.dll_190E6A3ADE9B4D67.mvfrm
Library\Bee\artifacts\mvdfrm\UnityEngine.InputModule.dll_510C50067454BADE.mvfrm
Library\Bee\artifacts\mvdfrm\UnityEngine.JSONSerializeModule.dll_4F5BEC75B118E1AC.mvfrm
Library\Bee\artifacts\mvdfrm\UnityEngine.LocalizationModule.dll_8E1244EB8BD9F259.mvfrm
Library\Bee\artifacts\mvdfrm\UnityEngine.NVIDIAModule.dll_BBC70E86F4D7335B.mvfrm
Library\Bee\artifacts\mvdfrm\UnityEngine.ParticleSystemModule.dll_B1A5C200897C9595.mvfrm
Library\Bee\artifacts\mvdfrm\UnityEngine.PerformanceReportingModule.dll_781068A6C9B95ACE.mvfrm
Library\Bee\artifacts\mvdfrm\UnityEngine.Physics2DModule.dll_E775F239E24F3EDD.mvfrm
Library\Bee\artifacts\mvdfrm\UnityEngine.PhysicsModule.dll_4E0241E4CBB8AC4B.mvfrm
Library\Bee\artifacts\mvdfrm\UnityEngine.ProfilerModule.dll_21DBC839CC4897F9.mvfrm
Library\Bee\artifacts\mvdfrm\UnityEngine.RuntimeInitializeOnLoadManagerInitializerModule.dll_89E6DD066C99E9A6.mvfrm
Library\Bee\artifacts\mvdfrm\UnityEngine.ScreenCaptureModule.dll_694399FAC5850E0E.mvfrm
Library\Bee\artifacts\mvdfrm\UnityEngine.SharedInternalsModule.dll_8174BFD2B1C703E5.mvfrm
Library\Bee\artifacts\mvdfrm\UnityEngine.SpriteMaskModule.dll_F3ABC19535D2EDE1.mvfrm
Library\Bee\artifacts\mvdfrm\UnityEngine.SpriteShapeModule.dll_A12A7C76FC4BCF80.mvfrm
Library\Bee\artifacts\mvdfrm\UnityEngine.StreamingModule.dll_4F64EF9990D9FE86.mvfrm
Library\Bee\artifacts\mvdfrm\UnityEngine.SubstanceModule.dll_2C1003E2DC2CFC94.mvfrm
Library\Bee\artifacts\mvdfrm\UnityEngine.SubsystemsModule.dll_5E5927F7041AD5F4.mvfrm
Library\Bee\artifacts\mvdfrm\UnityEngine.TerrainModule.dll_6848BD53A176F539.mvfrm
Library\Bee\artifacts\mvdfrm\UnityEngine.TerrainPhysicsModule.dll_B2206AD3A2BF9022.mvfrm
Library\Bee\artifacts\mvdfrm\UnityEngine.TextCoreFontEngineModule.dll_CD28FB3D5B1F6BAD.mvfrm
Library\Bee\artifacts\mvdfrm\UnityEngine.TextCoreTextEngineModule.dll_151131AEEAA324CB.mvfrm
Library\Bee\artifacts\mvdfrm\UnityEngine.TextRenderingModule.dll_92830C057CBC8E03.mvfrm
Library\Bee\artifacts\mvdfrm\UnityEngine.TilemapModule.dll_074524D4B933D642.mvfrm
Library\Bee\artifacts\mvdfrm\UnityEngine.TLSModule.dll_169C1C5A8AEA725F.mvfrm
Library\Bee\artifacts\mvdfrm\UnityEngine.UIElementsModule.dll_6297895F074711EB.mvfrm
Library\Bee\artifacts\mvdfrm\UnityEngine.UIElementsNativeModule.dll_5631558CFC057462.mvfrm
Library\Bee\artifacts\mvdfrm\UnityEngine.UIModule.dll_2A71BFBE901FCB64.mvfrm
Library\Bee\artifacts\mvdfrm\UnityEngine.UmbraModule.dll_656B346E8B4341AD.mvfrm
Library\Bee\artifacts\mvdfrm\UnityEngine.UNETModule.dll_956B377EFC23EC88.mvfrm
Library\Bee\artifacts\mvdfrm\UnityEngine.UnityAnalyticsCommonModule.dll_134F25EAE3A1F92C.mvfrm
Library\Bee\artifacts\mvdfrm\UnityEngine.UnityAnalyticsModule.dll_D14532CA35A3E791.mvfrm
Library\Bee\artifacts\mvdfrm\UnityEngine.UnityConnectModule.dll_BD8889923D5E2D45.mvfrm
Library\Bee\artifacts\mvdfrm\UnityEngine.UnityCurlModule.dll_CDECA37AB1663935.mvfrm
Library\Bee\artifacts\mvdfrm\UnityEngine.UnityTestProtocolModule.dll_63BCD2C6FB79E823.mvfrm
Library\Bee\artifacts\mvdfrm\UnityEngine.UnityWebRequestAssetBundleModule.dll_B1069DBE1051CF22.mvfrm
Library\Bee\artifacts\mvdfrm\UnityEngine.UnityWebRequestAudioModule.dll_F00CBC8550242566.mvfrm
Library\Bee\artifacts\mvdfrm\UnityEngine.UnityWebRequestModule.dll_0F0288A7458DA314.mvfrm
Library\Bee\artifacts\mvdfrm\UnityEngine.UnityWebRequestTextureModule.dll_9E879543CFD403FB.mvfrm
Library\Bee\artifacts\mvdfrm\UnityEngine.UnityWebRequestWWWModule.dll_DFD3770ADA62E137.mvfrm
Library\Bee\artifacts\mvdfrm\UnityEngine.VehiclesModule.dll_67588882AD18E087.mvfrm
Library\Bee\artifacts\mvdfrm\UnityEngine.VFXModule.dll_977AB4C96157DBCC.mvfrm
Library\Bee\artifacts\mvdfrm\UnityEngine.VideoModule.dll_0FA00CC0C0AEB1DF.mvfrm
Library\Bee\artifacts\mvdfrm\UnityEngine.VirtualTexturingModule.dll_7ABE09FBD4B3F4ED.mvfrm
Library\Bee\artifacts\mvdfrm\UnityEngine.VRModule.dll_7D43E64431DA50DC.mvfrm
Library\Bee\artifacts\mvdfrm\UnityEngine.WindModule.dll_7913CABE404B7578.mvfrm
Library\Bee\artifacts\mvdfrm\UnityEngine.XRModule.dll_B002A948BB149E3A.mvfrm
Library\Bee\artifacts\mvdfrm\Unity.Android.Gradle.dll_6586435B4BC1C7CC.mvfrm
Library\Bee\artifacts\mvdfrm\Unity.Android.Types.dll_B2842798367EFB30.mvfrm
Library\Bee\artifacts\mvdfrm\UnityEditor.Android.Extensions.dll_C8FB87D3CB804B8C.mvfrm
Library\Bee\artifacts\mvdfrm\UnityEditor.WindowsStandalone.Extensions.dll_63080095A72B67FC.mvfrm
Library\Bee\artifacts\mvdfrm\Unity.Burst.Cecil.dll_E7970826A9BB9F4D.mvfrm
Library\Bee\artifacts\mvdfrm\Unity.Burst.Cecil.Mdb.dll_AE8ED1EDAACFCDCA.mvfrm
Library\Bee\artifacts\mvdfrm\Unity.Burst.Cecil.Pdb.dll_C5E14A5D2984CF4D.mvfrm
Library\Bee\artifacts\mvdfrm\Unity.Burst.Cecil.Rocks.dll_61237B063174EB0D.mvfrm
Library\Bee\artifacts\mvdfrm\Unity.Burst.Unsafe.dll_153DC4875D561036.mvfrm
Library\Bee\artifacts\mvdfrm\Unity.Plastic.Antlr3.Runtime.dll_9EC8764362A586DC.mvfrm
Library\Bee\artifacts\mvdfrm\Unity.Plastic.Newtonsoft.Json.dll_EA1DEC14EE232A99.mvfrm
Library\Bee\artifacts\mvdfrm\Unity.VisualScripting.IonicZip.dll_00186B7BC4F43906.mvfrm
Library\Bee\artifacts\mvdfrm\Unity.VisualScripting.YamlDotNet.dll_1605EE80AEC48356.mvfrm
Library\Bee\artifacts\mvdfrm\Unity.VisualScripting.TextureAssets.dll_AD2417D46F91E14E.mvfrm
Library\Bee\artifacts\mvdfrm\Unity.VisualScripting.Antlr3.Runtime.dll_C7731561DF8D9375.mvfrm